[
  {
    "line": 1,
    "elements": [
      {
        "BDD_TESTRUN_UUID": "d0d33918-f80d-4882-bc1f-c770ddce574b",
        "line": 3,
        "name": "User want to Edit Product Blank Harga Barang",
        "description": "",
        "id": "edit-product-negative-feature-1;user-want-to-edit-product-blank-harga-barang",
        "type": "scenario",
        "keyword": "Scenario",
        "steps": [
          {
            "result": {
              "duration": 16608959000,
              "status": "passed"
            },
            "line": 4,
            "name": "User navigates to edit product blank harga barang",
            "match": {
              "location": "EditProductNegativeHargaKosong.navigateToeditnegativepage1()"
            },
            "keyword": "Given ",
            "BDD_STEP_UUID": "208386f0-4eeb-475e-94b0-035c261cb21c"
          },
          {
            "result": {
              "duration": 6818378200,
              "status": "passed"
            },
            "line": 5,
            "name": "User fill form edit product blank harga barang",
            "match": {
              "location": "EditProductNegativeHargaKosong.entereditproductnegativeharga()"
            },
            "keyword": "When ",
            "BDD_STEP_UUID": "f6aa08b8-19be-4229-801b-f72a188e1358"
          },
          {
            "result": {
              "duration": 703792500,
              "status": "passed"
            },
            "line": 6,
            "name": "User is form edit product1",
            "match": {
              "location": "EditProductNegativeHargaKosong.verifylisteditproductnegative1()"
            },
            "keyword": "Then ",
            "BDD_STEP_UUID": "598f3efe-69b0-4b31-80f3-bef7d667d9f0"
          }
        ]
      }
    ],
    "name": "Edit Product Negative Feature 1",
    "description": "",
    "id": "edit-product-negative-feature-1",
    "keyword": "Feature",
    "uri": "C:/Binar Academy/Platinum Challenge/platinum_challenge_apk_qae17/Include/features/EditProductNegativeHargaKosong.feature",
    "tags": []
  }
]