[
  {
    "line": 1,
    "elements": [
      {
        "line": 3,
        "name": "User want to Edit Product Blank Nama Barang",
        "description": "",
        "id": "edit-product-negative-feature;user-want-to-edit-product-blank-nama-barang",
        "type": "scenario",
        "keyword": "Scenario",
        "steps": [
          {
            "result": {
              "duration": 26636281300,
              "status": "passed"
            },
            "line": 4,
            "name": "User navigates to edit product blank nama barang",
            "match": {
              "location": "EditProductNegativeNamaProductKosong.navigateToeditnegativepage()"
            },
            "keyword": "Given "
          },
          {
            "result": {
              "duration": 16047816500,
              "status": "passed"
            },
            "line": 5,
            "name": "User fill form edit product blank nama barang",
            "match": {
              "location": "EditProductNegativeNamaProductKosong.entereditproductnegative()"
            },
            "keyword": "When "
          },
          {
            "result": {
              "duration": 1327355600,
              "status": "passed"
            },
            "line": 6,
            "name": "User is form edit product",
            "match": {
              "location": "EditProductNegativeNamaProductKosong.verifylisteditproductnegative()"
            },
            "keyword": "Then "
          }
        ]
      }
    ],
    "name": "Edit Product Negative Feature",
    "description": "",
    "id": "edit-product-negative-feature",
    "keyword": "Feature",
    "uri": "C:/Binar Academy/Platinum Challenge/platinum_challenge_apk_qae17/Include/features/EditProductNegativeNamaProductKosong.feature",
    "tags": []
  }
]