[
  {
    "line": 1,
    "elements": [
      {
        "BDD_TESTRUN_UUID": "1660ff0c-397c-4e6c-ae8c-4d8e4905fa60",
        "line": 3,
        "name": "User want to Edit Product Blank Nama Barang",
        "description": "",
        "id": "edit-product-negative-feature;user-want-to-edit-product-blank-nama-barang",
        "type": "scenario",
        "keyword": "Scenario",
        "steps": [
          {
            "result": {
              "duration": 24402538600,
              "status": "passed"
            },
            "line": 4,
            "name": "User navigates to edit product blank nama barang",
            "match": {
              "location": "EditProductNegativeNamaProductKosong.navigateToeditnegativepage()"
            },
            "keyword": "Given ",
            "BDD_STEP_UUID": "076bbb4f-7282-41a0-bc49-7adeb1cca95a"
          },
          {
            "result": {
              "duration": 10508837199,
              "status": "passed"
            },
            "line": 5,
            "name": "User fill form edit product blank nama barang",
            "match": {
              "location": "EditProductNegativeNamaProductKosong.entereditproductnegative()"
            },
            "keyword": "When ",
            "BDD_STEP_UUID": "fd8c174f-efca-4217-b1f8-3bd9661f139a"
          },
          {
            "result": {
              "duration": 1354239899,
              "status": "passed"
            },
            "line": 6,
            "name": "User is form edit product",
            "match": {
              "location": "EditProductNegativeNamaProductKosong.verifylisteditproductnegative()"
            },
            "keyword": "Then ",
            "BDD_STEP_UUID": "9cfc9c1e-b40e-4bd2-8d6c-3734589cc355"
          }
        ]
      }
    ],
    "name": "Edit Product Negative Feature",
    "description": "",
    "id": "edit-product-negative-feature",
    "keyword": "Feature",
    "uri": "C:/Users/USER/Katalon Studio/APK_Second_Hand/Include/features/EditProductNegativeNamaProductKosong.feature",
    "tags": []
  }
]