[
  {
    "line": 1,
    "elements": [
      {
        "BDD_TESTRUN_UUID": "e3ce72f1-6e1c-418d-8c1a-781622c591f8",
        "line": 3,
        "name": "User want to Edit Product",
        "description": "",
        "id": "edit-product-feature;user-want-to-edit-product",
        "type": "scenario",
        "keyword": "Scenario",
        "steps": [
          {
            "result": {
              "duration": 29935111400,
              "status": "passed"
            },
            "line": 4,
            "name": "User navigates to edit product",
            "match": {
              "location": "EditProduct.navigateToeditpage()"
            },
            "keyword": "Given ",
            "BDD_STEP_UUID": "e7846634-91cb-4d51-8d27-01c8b666ec56"
          },
          {
            "result": {
              "duration": 33493292400,
              "status": "passed"
            },
            "line": 5,
            "name": "User fill form edit product",
            "match": {
              "location": "EditProduct.entereditproduct()"
            },
            "keyword": "When ",
            "BDD_STEP_UUID": "fe016275-6604-48ec-bb5d-b15a4c58fecd"
          },
          {
            "result": {
              "duration": 1409667900,
              "status": "passed"
            },
            "line": 6,
            "name": "User is navigated list product",
            "match": {
              "location": "EditProduct.verifylisteditproduct()"
            },
            "keyword": "Then ",
            "BDD_STEP_UUID": "0e120808-1121-4d05-945c-5ba1f7cc4208"
          }
        ]
      }
    ],
    "name": "Edit Product Feature",
    "description": "",
    "id": "edit-product-feature",
    "keyword": "Feature",
    "uri": "C:/Binar Academy/Platinum Challenge/platinum_challenge_apk_qae17/Include/features/EditProduct.feature",
    "tags": []
  }
]