Suite/Test/Step Name,Browser,Description,Tag,Start time,End time,Duration,Status
Feature Cucumber,,,,2024-03-04 20:36:13,2024-03-04 20:43:07,6m - 53.893s,PASSED
,,,,,,,
Test Cases/Step Definition/Feature Cucumber/Login,,,,2024-03-04 20:36:14,2024-03-04 20:38:24,2m - 10.047s,PASSED
"runFeatureFile(""Include/features/Login.feature"")",,,,2024-03-04 20:36:14,2024-03-04 20:38:24,2m - 9.519s,PASSED
,,,,,,,
Test Cases/Step Definition/Feature Cucumber/Logout,,,,2024-03-04 20:38:24,2024-03-04 20:38:46,22.006s,PASSED
"runFeatureFile(""Include/features/LogOut.feature"")",,,,2024-03-04 20:38:24,2024-03-04 20:38:46,21.471s,PASSED
,,,,,,,
Test Cases/Step Definition/Feature Cucumber/Register,,,,2024-03-04 20:38:46,2024-03-04 20:43:07,4m - 21.368s,PASSED
"runFeatureFile(""Include/features/Register.feature"")",,,,2024-03-04 20:38:46,2024-03-04 20:43:07,4m - 20.976s,PASSED
