[
  {
    "line": 1,
    "elements": [
      {
        "line": 3,
        "name": "User want to Edit Product Blank Harga Barang",
        "description": "",
        "id": "edit-product-negative-feature-1;user-want-to-edit-product-blank-harga-barang",
        "type": "scenario",
        "keyword": "Scenario",
        "steps": [
          {
            "result": {
              "duration": 28754375501,
              "status": "passed"
            },
            "line": 4,
            "name": "User navigates to edit product blank harga barang",
            "match": {
              "location": "EditProductNegativeHargaKosong.navigateToeditnegativepage1()"
            },
            "keyword": "Given "
          },
          {
            "result": {
              "duration": 10681958401,
              "status": "passed"
            },
            "line": 5,
            "name": "User fill form edit product blank harga barang",
            "match": {
              "location": "EditProductNegativeHargaKosong.entereditproductnegativeharga()"
            },
            "keyword": "When "
          },
          {
            "result": {
              "duration": 1294898200,
              "status": "passed"
            },
            "line": 6,
            "name": "User is form edit product1",
            "match": {
              "location": "EditProductNegativeHargaKosong.verifylisteditproductnegative1()"
            },
            "keyword": "Then "
          }
        ]
      }
    ],
    "name": "Edit Product Negative Feature 1",
    "description": "",
    "id": "edit-product-negative-feature-1",
    "keyword": "Feature",
    "uri": "C:/Users/USER/Katalon Studio/APK_Second_Hand/Include/features/EditProductNegativeHargaKosong.feature",
    "tags": []
  }
]