Suite/Test/Step Name,Browser,Description,Tag,Start time,End time,Duration,Status
Login - LogOut,,,,2024-03-04 14:44:04,2024-03-04 14:45:52,1m - 47.903s,PASSED
,,,,,,,
Test Cases/Step Definition/Login/02. Login With Username Benar And Password Salah,,,,2024-03-04 14:44:04,2024-03-04 14:44:24,20.170s,PASSED
"startApplication(""C:\Binar Academy\Platinum Challenge\secondhand-01022024.apk"", true)",,,,2024-03-04 14:44:04,2024-03-04 14:44:16,11.311s,PASSED
"tap(findTestObject(""Object Repository/Page_Login/Btn_akun""), 0)",,,,2024-03-04 14:44:16,2024-03-04 14:44:18,2.012s,PASSED
"tap(findTestObject(""Object Repository/Page_Login/Btn_Masuk""), 0)",,,,2024-03-04 14:44:18,2024-03-04 14:44:19,0.773s,PASSED
"setText(findTestObject(""Object Repository/Page_Login/Masukkan email""), ""overlord.njoo@gmail.com"", 0)",,,,2024-03-04 14:44:19,2024-03-04 14:44:21,1.927s,PASSED
"setText(findTestObject(""Object Repository/Page_Login/Masukkan password""), ""123456"", 0)",,,,2024-03-04 14:44:21,2024-03-04 14:44:22,1.586s,PASSED
"tap(findTestObject(""Object Repository/Page_Login/Btn_login_Masuk""), 0)",,,,2024-03-04 14:44:22,2024-03-04 14:44:23,0.577s,PASSED
"verifyElementExist(findTestObject(""Page_Login/Element_validasi_Belum punya akun""), 0)",,,,2024-03-04 14:44:23,2024-03-04 14:44:23,0.779s,PASSED
closeApplication(),,,,2024-03-04 14:44:23,2024-03-04 14:44:24,0.873s,PASSED
,,,,,,,
Test Cases/Step Definition/Login/03. Login With Username Salah And Password Benar,,,,2024-03-04 14:44:24,2024-03-04 14:44:43,18.202s,PASSED
"startApplication(""C:\Binar Academy\Platinum Challenge\secondhand-01022024.apk"", true)",,,,2024-03-04 14:44:25,2024-03-04 14:44:34,9.044s,PASSED
"tap(findTestObject(""Object Repository/Page_Login/Btn_akun""), 0)",,,,2024-03-04 14:44:34,2024-03-04 14:44:37,2.960s,PASSED
"tap(findTestObject(""Object Repository/Page_Login/Btn_Masuk""), 0)",,,,2024-03-04 14:44:37,2024-03-04 14:44:37,0.738s,PASSED
"setText(findTestObject(""Object Repository/Page_Login/Masukkan email""), ""testing@yahooo.com"", 0)",,,,2024-03-04 14:44:37,2024-03-04 14:44:39,1.917s,PASSED
"setText(findTestObject(""Object Repository/Page_Login/Masukkan password""), ""31107010"", 0)",,,,2024-03-04 14:44:39,2024-03-04 14:44:40,1.099s,PASSED
"tap(findTestObject(""Object Repository/Page_Login/Btn_login_Masuk""), 0)",,,,2024-03-04 14:44:40,2024-03-04 14:44:41,0.590s,PASSED
"verifyElementExist(findTestObject(""Page_Login/Element_validasi_Belum punya akun""), 0)",,,,2024-03-04 14:44:41,2024-03-04 14:44:42,0.755s,PASSED
closeApplication(),,,,2024-03-04 14:44:42,2024-03-04 14:44:43,0.783s,PASSED
,,,,,,,
Test Cases/Step Definition/Login/04. Login With Username Dan Password Salah,,,,2024-03-04 14:44:57,2024-03-04 14:45:14,16.138s,PASSED
"startApplication(""C:\Binar Academy\Platinum Challenge\secondhand-01022024.apk"", true)",,,,2024-03-04 14:44:57,2024-03-04 14:45:05,7.492s,PASSED
"tap(findTestObject(""Object Repository/Page_Login/Btn_akun""), 0)",,,,2024-03-04 14:45:05,2024-03-04 14:45:07,2.197s,PASSED
"tap(findTestObject(""Object Repository/Page_Login/Btn_Masuk""), 0)",,,,2024-03-04 14:45:07,2024-03-04 14:45:08,0.737s,PASSED
"setText(findTestObject(""Object Repository/Page_Login/Masukkan email""), ""testing@yahooo.com"", 0)",,,,2024-03-04 14:45:08,2024-03-04 14:45:10,1.964s,PASSED
"setText(findTestObject(""Object Repository/Page_Login/Masukkan password""), ""12345"", 0)",,,,2024-03-04 14:45:10,2024-03-04 14:45:11,1.608s,PASSED
"tap(findTestObject(""Object Repository/Page_Login/Btn_login_Masuk""), 0)",,,,2024-03-04 14:45:11,2024-03-04 14:45:12,0.582s,PASSED
"verifyElementExist(findTestObject(""Page_Login/Element_validasi_Belum punya akun""), 0)",,,,2024-03-04 14:45:12,2024-03-04 14:45:13,0.871s,PASSED
closeApplication(),,,,2024-03-04 14:45:13,2024-03-04 14:45:14,0.671s,PASSED
,,,,,,,
Test Cases/Step Definition/Login/01. Login With Username And Password Benar,,,,2024-03-04 14:45:14,2024-03-04 14:45:34,20.414s,PASSED
"startApplication(""C:\Binar Academy\Platinum Challenge\secondhand-01022024.apk"", true)",,,,2024-03-04 14:45:14,2024-03-04 14:45:24,10.073s,PASSED
"tap(findTestObject(""Object Repository/Page_Login/Btn_akun""), 0)",,,,2024-03-04 14:45:24,2024-03-04 14:45:27,2.951s,PASSED
"tap(findTestObject(""Object Repository/Page_Login/Btn_Masuk""), 0)",,,,2024-03-04 14:45:27,2024-03-04 14:45:28,0.821s,PASSED
"setText(findTestObject(""Object Repository/Page_Login/Masukkan email""), ""overlord.njoo@gmail.com"", 0)",,,,2024-03-04 14:45:28,2024-03-04 14:45:30,2.137s,PASSED
"setText(findTestObject(""Object Repository/Page_Login/Masukkan password""), ""31107010"", 0)",,,,2024-03-04 14:45:30,2024-03-04 14:45:32,1.728s,PASSED
"tap(findTestObject(""Object Repository/Page_Login/Btn_login_Masuk""), 0)",,,,2024-03-04 14:45:32,2024-03-04 14:45:32,0.578s,PASSED
"verifyElementVisible(findTestObject(""Object Repository/Page_Login/Btn_logout""), 0)",,,,2024-03-04 14:45:32,2024-03-04 14:45:33,1.123s,PASSED
closeApplication(),,,,2024-03-04 14:45:33,2024-03-04 14:45:34,0.755s,PASSED
,,,,,,,
Test Cases/Step Definition/Log Out/LogOut,,,,2024-03-04 14:45:34,2024-03-04 14:45:52,17.815s,PASSED
"startApplication(""C:\Binar Academy\Platinum Challenge\secondhand-01022024.apk"", true)",,,,2024-03-04 14:45:34,2024-03-04 14:45:43,8.716s,PASSED
"tap(findTestObject(""Object Repository/Page_Login/Btn_akun""), 0)",,,,2024-03-04 14:45:43,2024-03-04 14:45:45,2.014s,PASSED
"tap(findTestObject(""Object Repository/Page_Login/Btn_Masuk""), 0)",,,,2024-03-04 14:45:45,2024-03-04 14:45:46,0.727s,PASSED
"setText(findTestObject(""Object Repository/Page_Login/Masukkan email""), ""overlord.njoo@gmail.com"", 0)",,,,2024-03-04 14:45:46,2024-03-04 14:45:48,1.932s,PASSED
"setText(findTestObject(""Object Repository/Page_Login/Masukkan password""), ""31107010"", 0)",,,,2024-03-04 14:45:48,2024-03-04 14:45:49,1.583s,PASSED
"tap(findTestObject(""Object Repository/Page_Login/Btn_login_Masuk""), 0)",,,,2024-03-04 14:45:49,2024-03-04 14:45:50,0.581s,PASSED
"tap(findTestObject(""Object Repository/Page_Login/Btn_logout""), 0)",,,,2024-03-04 14:45:50,2024-03-04 14:45:51,1.191s,PASSED
closeApplication(),,,,2024-03-04 14:45:51,2024-03-04 14:45:52,0.842s,PASSED
