[
  {
    "line": 1,
    "elements": [
      {
        "BDD_TESTRUN_UUID": "e30717c6-dee8-443d-9e45-c8589b4c6923",
        "line": 3,
        "name": "User want to Edit Product Blank Lokasi Barang",
        "description": "",
        "id": "edit-product-negative-feature-2;user-want-to-edit-product-blank-lokasi-barang",
        "type": "scenario",
        "keyword": "Scenario",
        "steps": [
          {
            "result": {
              "duration": 29032884400,
              "status": "passed"
            },
            "line": 4,
            "name": "User navigates to edit product blank lokasi barang",
            "match": {
              "location": "EditProductNegativeLokasiKosong.navigateToeditnegativepage2()"
            },
            "keyword": "Given ",
            "BDD_STEP_UUID": "aa26939c-0515-4097-b381-c90adabffd4b"
          },
          {
            "result": {
              "duration": 7823650899,
              "status": "passed"
            },
            "line": 5,
            "name": "User fill form edit product blank lokasi barang",
            "match": {
              "location": "EditProductNegativeLokasiKosong.entereditproductnegativelokasi()"
            },
            "keyword": "When ",
            "BDD_STEP_UUID": "fbaf3374-3841-421a-83bc-9e9402b3aa42"
          },
          {
            "result": {
              "duration": 1245700600,
              "status": "passed"
            },
            "line": 6,
            "name": "User is form edit product2",
            "match": {
              "location": "EditProductNegativeLokasiKosong.verifylisteditproductnegative2()"
            },
            "keyword": "Then ",
            "BDD_STEP_UUID": "5da104c9-9aca-4a1a-9899-3387ca7fdb31"
          }
        ]
      }
    ],
    "name": "Edit Product Negative Feature 2",
    "description": "",
    "id": "edit-product-negative-feature-2",
    "keyword": "Feature",
    "uri": "C:/Users/USER/Katalon Studio/APK_Second_Hand/Include/features/EditProductNegativeLokasiKosong.feature",
    "tags": []
  }
]