[
  {
    "line": 1,
    "elements": [
      {
        "line": 3,
        "name": "User want to logout",
        "description": "",
        "id": "logout-feature;user-want-to-logout",
        "type": "scenario",
        "keyword": "Scenario",
        "steps": [
          {
            "result": {
              "duration": 21691040300,
              "status": "passed"
            },
            "line": 4,
            "name": "User already to login page",
            "match": {
              "location": "LogoutStep.navigateToLogin()"
            },
            "keyword": "Given "
          },
          {
            "result": {
              "duration": 4771263400,
              "status": "passed"
            },
            "line": 5,
            "name": "User click logout",
            "match": {
              "location": "LogoutStep.entercredentialslogout()"
            },
            "keyword": "When "
          },
          {
            "result": {
              "duration": 3589082900,
              "status": "passed"
            },
            "line": 6,
            "name": "User is navigated on home",
            "match": {
              "location": "LogoutStep.verifyhome()"
            },
            "keyword": "Then "
          }
        ]
      }
    ],
    "name": "Logout Feature",
    "description": "",
    "id": "logout-feature",
    "keyword": "Feature",
    "uri": "C:/Binar Academy/Platinum Challenge/platinum_challenge_apk_qae17/Include/features/LogOut.feature",
    "tags": []
  }
]