[
  {
    "line": 1,
    "elements": [
      {
        "BDD_TESTRUN_UUID": "402c3b95-3f96-4db0-baa1-e7542ff3c851",
        "line": 3,
        "name": "User want to Edit Product Blank Lokasi Barang",
        "description": "",
        "id": "edit-product-negative-feature-2;user-want-to-edit-product-blank-lokasi-barang",
        "type": "scenario",
        "keyword": "Scenario",
        "steps": [
          {
            "result": {
              "duration": 16212702200,
              "status": "passed"
            },
            "line": 4,
            "name": "User navigates to edit product blank lokasi barang",
            "match": {
              "location": "EditProductNegativeLokasiKosong.navigateToeditnegativepage2()"
            },
            "keyword": "Given ",
            "BDD_STEP_UUID": "9b99b6cc-cd1b-4083-b227-e150f3d8356b"
          },
          {
            "result": {
              "duration": 5245275100,
              "status": "passed"
            },
            "line": 5,
            "name": "User fill form edit product blank lokasi barang",
            "match": {
              "location": "EditProductNegativeLokasiKosong.entereditproductnegativelokasi()"
            },
            "keyword": "When ",
            "BDD_STEP_UUID": "be4146da-0007-4818-9c56-bc3d37de3215"
          },
          {
            "result": {
              "duration": 688782900,
              "status": "passed"
            },
            "line": 6,
            "name": "User is form edit product2",
            "match": {
              "location": "EditProductNegativeLokasiKosong.verifylisteditproductnegative2()"
            },
            "keyword": "Then ",
            "BDD_STEP_UUID": "e1fdaa54-c4ee-4ace-8631-8a11a6a35b03"
          }
        ]
      }
    ],
    "name": "Edit Product Negative Feature 2",
    "description": "",
    "id": "edit-product-negative-feature-2",
    "keyword": "Feature",
    "uri": "C:/Users/USER/Katalon Studio/APK_Second_Hand/Include/features/EditProductNegativeLokasiKosong.feature",
    "tags": []
  }
]