[
  {
    "line": 1,
    "elements": [
      {
        "BDD_TESTRUN_UUID": "962a5b66-67ff-4449-9be2-290f9a910448",
        "line": 3,
        "name": "User want to add a product with empty price",
        "description": "",
        "id": "add-a-product-with-empty-price;user-want-to-add-a-product-with-empty-price",
        "type": "scenario",
        "keyword": "Scenario",
        "steps": [
          {
            "result": {
              "duration": 18407358900,
              "status": "passed"
            },
            "line": 4,
            "name": "User navigates to add product page with empty price",
            "match": {
              "location": "AddProductHargaKosong.navigateToAddProductEmptyPrice()"
            },
            "keyword": "Given ",
            "BDD_STEP_UUID": "105d444c-4051-4e4d-b7ba-b6823be1fd3c"
          },
          {
            "result": {
              "duration": 12544130700,
              "status": "passed"
            },
            "line": 5,
            "name": "User fills the form without input price",
            "match": {
              "location": "AddProductHargaKosong.fillFormEmptyPrice()"
            },
            "keyword": "When ",
            "BDD_STEP_UUID": "ccdf05a3-93f9-48d3-bf77-619942f0b099"
          },
          {
            "result": {
              "duration": 1305729200,
              "status": "passed"
            },
            "line": 6,
            "name": "User get a notification to input the price",
            "match": {
              "location": "AddProductHargaKosong.verifyEmptyPrice()"
            },
            "keyword": "Then ",
            "BDD_STEP_UUID": "6d59e897-7f93-4299-a039-fdbf6cb55df5"
          }
        ]
      }
    ],
    "name": "Add a product with empty price",
    "description": "",
    "id": "add-a-product-with-empty-price",
    "keyword": "Feature",
    "uri": "D:/binar/clone mobile apk/platinum_challenge_apk_qae17/Include/features/AddProductHargaKosong.feature",
    "tags": []
  }
]