[
  {
    "line": 1,
    "elements": [
      {
        "line": 3,
        "name": "User want to Edit Product Blank Lokasi Barang",
        "description": "",
        "id": "edit-product-negative-feature-2;user-want-to-edit-product-blank-lokasi-barang",
        "type": "scenario",
        "keyword": "Scenario",
        "steps": [
          {
            "result": {
              "duration": 17400523100,
              "status": "passed"
            },
            "line": 4,
            "name": "User navigates to edit product blank lokasi barang",
            "match": {
              "location": "EditProductNegativeLokasiKosong.navigateToeditnegativepage2()"
            },
            "keyword": "Given "
          },
          {
            "result": {
              "duration": 5370481900,
              "status": "passed"
            },
            "line": 5,
            "name": "User fill form edit product blank lokasi barang",
            "match": {
              "location": "EditProductNegativeLokasiKosong.entereditproductnegativelokasi()"
            },
            "keyword": "When "
          },
          {
            "result": {
              "duration": 720687400,
              "status": "passed"
            },
            "line": 6,
            "name": "User is form edit product2",
            "match": {
              "location": "EditProductNegativeLokasiKosong.verifylisteditproductnegative2()"
            },
            "keyword": "Then "
          }
        ]
      }
    ],
    "name": "Edit Product Negative Feature 2",
    "description": "",
    "id": "edit-product-negative-feature-2",
    "keyword": "Feature",
    "uri": "C:/Users/USER/Katalon Studio/APK_Second_Hand/Include/features/EditProductNegativeLokasiKosong.feature",
    "tags": []
  }
]