[
  {
    "line": 1,
    "elements": [
      {
        "line": 3,
        "name": "User want to add a product with multiple categories",
        "description": "",
        "id": "add-a-product-with-multiple-categories;user-want-to-add-a-product-with-multiple-categories",
        "type": "scenario",
        "keyword": "Scenario",
        "steps": [
          {
            "result": {
              "duration": 16485627600,
              "status": "passed"
            },
            "line": 4,
            "name": "User navigates to add product page with multiple categories",
            "match": {
              "location": "AddProductBanyakKategori.navigateToAddProductPageWithCategories()"
            },
            "keyword": "Given "
          },
          {
            "result": {
              "duration": 14211803100,
              "status": "passed"
            },
            "line": 5,
            "name": "User fills the form without input multiple categories",
            "match": {
              "location": "AddProductBanyakKategori.fillFormsWithCategories()"
            },
            "keyword": "When "
          },
          {
            "result": {
              "duration": 3285337200,
              "status": "passed"
            },
            "line": 6,
            "name": "User on a product page after add a product with multiple categories",
            "match": {
              "location": "AddProductBanyakKategori.verifyMultipleCategories()"
            },
            "keyword": "Then "
          }
        ]
      }
    ],
    "name": "Add a product with multiple categories",
    "description": "",
    "id": "add-a-product-with-multiple-categories",
    "keyword": "Feature",
    "uri": "D:/binar/clone mobile apk/platinum_challenge_apk_qae17/Include/features/AddProductBanyakKategori.feature",
    "tags": []
  }
]