[
  {
    "line": 1,
    "elements": [
      {
        "BDD_TESTRUN_UUID": "b2734075-d10c-4bb6-ade5-c345aa1634a1",
        "line": 3,
        "name": "User want to add a product with multiple categories",
        "description": "",
        "id": "add-a-product-with-multiple-categories;user-want-to-add-a-product-with-multiple-categories",
        "type": "scenario",
        "keyword": "Scenario",
        "steps": [
          {
            "result": {
              "duration": 16485627600,
              "status": "passed"
            },
            "line": 4,
            "name": "User navigates to add product page with multiple categories",
            "match": {
              "location": "AddProductBanyakKategori.navigateToAddProductPageWithCategories()"
            },
            "keyword": "Given ",
            "BDD_STEP_UUID": "b6738383-d1c8-4b72-ab39-c5855f33edfb"
          },
          {
            "result": {
              "duration": 14211803100,
              "status": "passed"
            },
            "line": 5,
            "name": "User fills the form without input multiple categories",
            "match": {
              "location": "AddProductBanyakKategori.fillFormsWithCategories()"
            },
            "keyword": "When ",
            "BDD_STEP_UUID": "80bd1387-45e3-465a-846c-f4331a54a2d2"
          },
          {
            "result": {
              "duration": 3285337200,
              "status": "passed"
            },
            "line": 6,
            "name": "User on a product page after add a product with multiple categories",
            "match": {
              "location": "AddProductBanyakKategori.verifyMultipleCategories()"
            },
            "keyword": "Then ",
            "BDD_STEP_UUID": "a60ca61f-206e-4d51-80db-9c59cada743d"
          }
        ]
      }
    ],
    "name": "Add a product with multiple categories",
    "description": "",
    "id": "add-a-product-with-multiple-categories",
    "keyword": "Feature",
    "uri": "D:/binar/clone mobile apk/platinum_challenge_apk_qae17/Include/features/AddProductBanyakKategori.feature",
    "tags": []
  }
]