[
  {
    "line": 1,
    "elements": [
      {
        "BDD_TESTRUN_UUID": "1a4625bb-2bd7-48ff-92c5-1803b1a1869f",
        "line": 3,
        "name": "User wants to accept an offer",
        "description": "",
        "id": "respond-to-offer-feature;user-wants-to-accept-an-offer",
        "type": "scenario",
        "keyword": "Scenario",
        "steps": [
          {
            "result": {
              "duration": 17018349400,
              "status": "passed"
            },
            "line": 4,
            "name": "User navigates to notification page for accepting offers",
            "match": {
              "location": "RespondToOffer.navigatesToAcceptOffer()"
            },
            "keyword": "Given ",
            "BDD_STEP_UUID": "9714a701-8620-426f-bc06-7260f5fc6f69"
          },
          {
            "result": {
              "duration": 21924470700,
              "status": "passed"
            },
            "line": 5,
            "name": "User accept an offer",
            "match": {
              "location": "RespondToOffer.acceptOffer()"
            },
            "keyword": "When ",
            "BDD_STEP_UUID": "50900c55-d085-4d65-8ae7-16ee3de2b9b8"
          },
          {
            "result": {
              "duration": 1065473400,
              "status": "passed"
            },
            "line": 6,
            "name": "User on notification page after accepting",
            "match": {
              "location": "RespondToOffer.verifyAccept()"
            },
            "keyword": "Then ",
            "BDD_STEP_UUID": "278a372b-f175-4d4f-b1ca-f9c55f11036b"
          }
        ]
      },
      {
        "BDD_TESTRUN_UUID": "e9c1b6e3-265f-4798-abc6-f28aefa787b7",
        "line": 8,
        "name": "User wants to reject an offer",
        "description": "",
        "id": "respond-to-offer-feature;user-wants-to-reject-an-offer",
        "type": "scenario",
        "keyword": "Scenario",
        "steps": [
          {
            "result": {
              "duration": 17743257100,
              "status": "passed"
            },
            "line": 9,
            "name": "User navigates to notification page for rejecting offers",
            "match": {
              "location": "RespondToOffer.navigatesToRejectOffer()"
            },
            "keyword": "Given ",
            "BDD_STEP_UUID": "ec5ecbac-134c-4515-9383-fa4723a5c1e6"
          },
          {
            "result": {
              "duration": 3533420600,
              "status": "passed"
            },
            "line": 10,
            "name": "User reject an offer",
            "match": {
              "location": "RespondToOffer.rejectOffer()"
            },
            "keyword": "When ",
            "BDD_STEP_UUID": "74cf2756-bfd9-416b-895b-28c73a865e9f"
          },
          {
            "result": {
              "duration": 1399068400,
              "status": "passed"
            },
            "line": 11,
            "name": "User on notification page after rejecting",
            "match": {
              "location": "RespondToOffer.verifyReject()"
            },
            "keyword": "Then ",
            "BDD_STEP_UUID": "a46bc6cc-b861-4081-bc7b-486842ade564"
          }
        ]
      },
      {
        "BDD_TESTRUN_UUID": "a1bfe958-8d36-4703-9698-b835500cd897",
        "line": 13,
        "name": "User wants to give accept offer and contact buyer via WA",
        "description": "",
        "id": "respond-to-offer-feature;user-wants-to-give-accept-offer-and-contact-buyer-via-wa",
        "type": "scenario",
        "keyword": "Scenario",
        "steps": [
          {
            "result": {
              "duration": 17726941400,
              "status": "passed"
            },
            "line": 14,
            "name": "User navigates to notification page for contacting via WA",
            "match": {
              "location": "RespondToOffer.navigatesToContactWa()"
            },
            "keyword": "Given ",
            "BDD_STEP_UUID": "3376f447-dda2-4327-8b70-e136da3b1936"
          },
          {
            "result": {
              "duration": 4245187500,
              "status": "passed"
            },
            "line": 15,
            "name": "User accept an offer and contact via WA",
            "match": {
              "location": "RespondToOffer.contactWA()"
            },
            "keyword": "When ",
            "BDD_STEP_UUID": "41ad3d94-6aa5-441f-9410-f6af37b4ac7f"
          },
          {
            "result": {
              "duration": 673339800,
              "status": "passed"
            },
            "line": 16,
            "name": "User on WA Page",
            "match": {
              "location": "RespondToOffer.verifyWa()"
            },
            "keyword": "Then ",
            "BDD_STEP_UUID": "261bef55-3ed4-40e9-a52c-f52386dd857a"
          }
        ]
      }
    ],
    "name": "Respond to Offer Feature",
    "description": "",
    "id": "respond-to-offer-feature",
    "keyword": "Feature",
    "uri": "D:/binar/clone mobile apk/platinum_challenge_apk_qae17/Include/features/RespondToOffer.feature",
    "tags": []
  }
]