[
  {
    "line": 1,
    "elements": [
      {
        "BDD_TESTRUN_UUID": "b8e2664b-c77a-495e-bc1e-9c4b42b35ed6",
        "line": 3,
        "name": "User want to Edit Product Blank Harga Barang",
        "description": "",
        "id": "edit-product-negative-feature-1;user-want-to-edit-product-blank-harga-barang",
        "type": "scenario",
        "keyword": "Scenario",
        "steps": [
          {
            "result": {
              "duration": 25826895100,
              "status": "passed"
            },
            "line": 4,
            "name": "User navigates to edit product blank harga barang",
            "match": {
              "location": "EditProductNegativeHargaKosong.navigateToeditnegativepage1()"
            },
            "keyword": "Given ",
            "BDD_STEP_UUID": "f5aba00b-dc45-4f95-98c9-4788dd1521d2"
          },
          {
            "result": {
              "duration": 10207786500,
              "status": "passed"
            },
            "line": 5,
            "name": "User fill form edit product blank harga barang",
            "match": {
              "location": "EditProductNegativeHargaKosong.entereditproductnegativeharga()"
            },
            "keyword": "When ",
            "BDD_STEP_UUID": "6c43cbe5-9361-4ebd-b678-a8523e22c579"
          },
          {
            "result": {
              "duration": 1454964200,
              "status": "passed"
            },
            "line": 6,
            "name": "User is form edit product1",
            "match": {
              "location": "EditProductNegativeHargaKosong.verifylisteditproductnegative1()"
            },
            "keyword": "Then ",
            "BDD_STEP_UUID": "ac63acbe-e530-4789-8ec2-053858581383"
          }
        ]
      }
    ],
    "name": "Edit Product Negative Feature 1",
    "description": "",
    "id": "edit-product-negative-feature-1",
    "keyword": "Feature",
    "uri": "C:/Binar Academy/Platinum Challenge/platinum_challenge_apk_qae17/Include/features/EditProductNegativeHargaKosong.feature",
    "tags": []
  }
]