[
  {
    "line": 1,
    "elements": [
      {
        "line": 3,
        "name": "User want to login using correct credential",
        "description": "",
        "id": "login-feature;user-want-to-login-using-correct-credential",
        "type": "scenario",
        "keyword": "Scenario",
        "steps": [
          {
            "result": {
              "duration": 4963500,
              "status": "passed"
            },
            "line": 4,
            "name": "User navigates to login page",
            "match": {
              "location": "LoginStep.navigateToLoginPage()"
            },
            "keyword": "Given "
          },
          {
            "result": {
              "duration": 93482819800,
              "status": "passed"
            },
            "line": 5,
            "name": "User enter username and password",
            "match": {
              "location": "LoginStep.entercredentials()"
            },
            "keyword": "When "
          },
          {
            "result": {
              "duration": 2164442500,
              "status": "passed"
            },
            "line": 6,
            "name": "User is navigated on homepage",
            "match": {
              "location": "LoginStep.verifyhomepage()"
            },
            "keyword": "Then "
          }
        ]
      }
    ],
    "name": "Login Feature",
    "description": "",
    "id": "login-feature",
    "keyword": "Feature",
    "uri": "C:/Binar Academy/Platinum Challenge/platinum_challenge_apk_qae17/Include/features/Login.feature",
    "tags": []
  }
]