[
  {
    "line": 1,
    "elements": [
      {
        "line": 3,
        "name": "User want to Edit Product",
        "description": "",
        "id": "edit-product-feature;user-want-to-edit-product",
        "type": "scenario",
        "keyword": "Scenario",
        "steps": [
          {
            "result": {
              "duration": 29367147100,
              "status": "passed"
            },
            "line": 4,
            "name": "User navigates to edit product",
            "match": {
              "location": "EditProduct.navigateToeditpage()"
            },
            "keyword": "Given "
          },
          {
            "result": {
              "duration": 22432225600,
              "status": "passed"
            },
            "line": 5,
            "name": "User fill form edit product",
            "match": {
              "location": "EditProduct.entereditproduct()"
            },
            "keyword": "When "
          },
          {
            "result": {
              "duration": 1295943701,
              "status": "passed"
            },
            "line": 6,
            "name": "User is navigated list product",
            "match": {
              "location": "EditProduct.verifylisteditproduct()"
            },
            "keyword": "Then "
          }
        ]
      }
    ],
    "name": "Edit Product Feature",
    "description": "",
    "id": "edit-product-feature",
    "keyword": "Feature",
    "uri": "C:/Users/USER/Katalon Studio/APK_Second_Hand/Include/features/EditProduct.feature",
    "tags": []
  }
]